VGAController.vcd
$date
	Tue Nov 10 19:31:35 2020
$end
$version
	Icarus Verilog
$end
$timescale
	1ps
$end
$scope module VGAController_tb $end
$var wire 1 ! pressed $end
$var reg 1 " clock $end
$var reg 1 # down $end
$var reg 1 $ left $end
$var reg 1 % middle $end
$var reg 1 & pr_reset $end
$var reg 1 ' reset $end
$var reg 1 ( right $end
$var reg 1 ) up $end
$scope module controller $end
$var wire 1 * bg $end
$var wire 1 " clk $end
$var wire 1 # down $end
$var wire 1 + f $end
$var wire 1 $ left $end
$var wire 1 % middle $end
$var wire 1 & pr_reset $end
$var wire 1 ! pressed $end
$var wire 1 , ps2_clk $end
$var wire 1 - ps2_data $end
$var wire 1 ' reset $end
$var wire 1 ( right $end
$var wire 1 . sig $end
$var wire 12 / square_color [11:0] $end
$var wire 1 ) up $end
$var wire 9 0 y_proc [8:0] $end
$var wire 9 1 y_index [8:0] $end
$var wire 9 2 y [8:0] $end
$var wire 10 3 x_index [9:0] $end
$var wire 10 4 x [9:0] $end
$var wire 1 5 vSync $end
$var wire 1 6 screenEnd $end
$var wire 32 7 memOut [31:0] $end
$var wire 1 8 legalBlk $end
$var wire 20 9 imgAddress [19:0] $end
$var wire 1 : hSync $end
$var wire 12 ; colorOut [11:0] $end
$var wire 12 < colorData [11:0] $end
$var wire 9 = colorAddr [8:0] $end
$var wire 1 > clk25 $end
$var wire 4 ? blockStatus [3:0] $end
$var wire 1 @ blockID_final $end
$var wire 10 A blockID [9:0] $end
$var wire 12 B active_color0 [11:0] $end
$var wire 12 C active_color [11:0] $end
$var wire 1 D active $end
$var wire 4 E VGA_R [3:0] $end
$var wire 4 F VGA_G [3:0] $end
$var wire 4 G VGA_B [3:0] $end
$var reg 12 H BlockColor [11:0] $end
$var reg 1 I HasMoved $end
$var reg 1 J hasPressed $end
$var reg 1 K hasReset $end
$var reg 2 L pixCounter [1:0] $end
$var reg 10 M x_topleft [9:0] $end
$var reg 9 N y_topleft [8:0] $end
$scope module ColorPalette $end
$var wire 1 " clk $end
$var wire 12 O dataIn [11:0] $end
$var wire 1 P wEn $end
$var wire 9 Q addr [8:0] $end
$var reg 12 R dataOut [11:0] $end
$upscope $end
$scope module Display $end
$var wire 1 D active $end
$var wire 1 > clk25 $end
$var wire 1 : hSync $end
$var wire 1 ' reset $end
$var wire 1 6 screenEnd $end
$var wire 1 5 vSync $end
$var wire 9 S y [8:0] $end
$var wire 10 T x [9:0] $end
$var wire 1 U activeY $end
$var wire 1 V activeX $end
$var reg 10 W hPos [9:0] $end
$var reg 10 X vPos [9:0] $end
$upscope $end
$scope module ImageData $end
$var wire 20 Y addr [19:0] $end
$var wire 1 " clk $end
$var wire 9 Z dataIn [8:0] $end
$var wire 1 [ wEn $end
$var reg 9 \ dataOut [8:0] $end
$upscope $end
$scope module blockInfo $end
$var wire 12 ] addr [11:0] $end
$var wire 1 " clk $end
$var wire 32 ^ dataIn [31:0] $end
$var wire 1 _ wEn $end
$var reg 32 ` dataOut [31:0] $end
$upscope $end
$upscope $end
$upscope $end
$enddefinitions $end
#0
$dumpvars
bx `
0_
b0 ^
b111111010 ]
bx \
0[
bz Z
b0 Y
b0 X
b0 W
1V
1U
b0 T
b0 S
bx R
bx Q
0P
bz O
b10 N
b10 M
b0 L
0K
0J
0I
bx H
bx G
bx F
bx E
1D
bx C
bx B
b111111010 A
0@
bx ?
0>
bx =
bx <
bx ;
1:
b0 9
08
bx 7
06
15
b0 4
b0 3
b0 2
b0 1
b111111111 0
b11101110111 /
0.
z-
z,
0+
1*
0)
0(
0'
0&
0%
0$
0#
0"
0!
$end
#10000
b1101 =
b1101 Q
b1101 \
b1 L
1.
1"
1(
#20000
0"
#30000
b1 9
b1 Y
b1 4
b1 T
b1 W
b1111 E
b1111 F
b1111 G
b111111111111 ;
b111111111111 C
1>
b111111111111 B
b10 L
b111111111111 <
b111111111111 R
1"
#40000
0"
#50000
b11 L
1"
#60000
0.
0"
0(
#70000
0>
b0 L
1"
#80000
0"
#90000
b1 L
1"
#100000
0"
#110000
b10 9
b10 Y
b10 4
b10 T
b10 W
1>
b10 L
1"
#120000
0"
#130000
b11 L
1"
#140000
0"
#150000
0>
b0 L
1"
#160000
0"
1%
#170000
b1 L
1!
1J
1"
#180000
0"
#190000
b11 9
b11 Y
b11 4
b11 T
b11 W
1>
b10 L
1"
#200000
0"
#210000
b11 L
1"
#220000
0"
#230000
0>
b0 L
1"
#240000
0"
#250000
b1 L
1"
#260000
0"
#270000
b100 9
b100 Y
b100 4
b100 T
b100 W
1>
b10 L
1"
#280000
0"
#290000
b11 L
1"
#300000
0"
#310000
0>
b0 L
1"
#320000
0"
#330000
b1 L
1"
#340000
0"
#350000
b101 9
b101 Y
b101 4
b101 T
b101 W
1>
b10 L
1"
#360000
0"
#370000
b11 L
1"
#380000
0"
#390000
0>
b0 L
1"
#400000
0"
#410000
b1 L
1"
#420000
0"
#430000
b110 9
b110 Y
b110 4
b110 T
b110 W
1>
b10 L
1"
#440000
0"
#450000
b11 L
1"
#460000
0"
#470000
0>
b0 L
1"
#480000
0"
#490000
b1 L
1"
#500000
0"
#510000
b111 9
b111 Y
b111 4
b111 T
b111 W
1>
b10 L
1"
#520000
0"
#530000
b11 L
1"
#540000
0"
#550000
0>
b0 L
1"
#560000
0"
#570000
b1 L
1"
#580000
0"
#590000
b1000 9
b1000 Y
b1000 4
b1000 T
b1000 W
1>
b10 L
1"
#600000
0"
#610000
b11 L
1"
#620000
0"
#630000
0>
b0 L
1"
#640000
0"
#650000
b1 L
1"
#660000
0"
#665000
1&
#670000
b1001 9
b1001 Y
b1001 4
b1001 T
b1001 W
1>
0!
0J
1K
b10 L
1"
#680000
0"
#690000
b11 L
1"
#700000
0"
#710000
0>
b0 L
1"
#720000
0"
#730000
b1 L
1"
#740000
0"
#750000
b1010 9
b1010 Y
b1010 4
b1010 T
b1010 W
1>
b10 L
1"
#760000
0"
#770000
b11 L
1"
#780000
0"
#790000
0>
b0 L
1"
#800000
0"
#810000
b1 L
1"
#820000
0"
#830000
b1011 9
b1011 Y
b1011 4
b1011 T
b1011 W
1>
b10 L
1"
#840000
0"
#850000
b11 L
1"
#860000
0"
#870000
0>
b0 L
1"
#880000
0"
#890000
b1 L
1"
#900000
0"
#910000
b1100 9
b1100 Y
b1100 4
b1100 T
b1100 W
1>
b10 L
1"
#920000
0"
#930000
b11 L
1"
#940000
0"
#950000
0>
b0 L
1"
#960000
0"
#970000
b1 L
1"
#980000
0"
#990000
b1101 9
b1101 Y
b1101 4
b1101 T
b1101 W
1>
b10 L
1"
#1000000
0"
#1010000
b11 L
1"
#1020000
0"
#1030000
0>
b0 L
1"
#1040000
0"
#1050000
b1 L
1"
#1060000
0"
#1070000
b1110 9
b1110 Y
b1110 4
b1110 T
b1110 W
1>
b10 L
1"
#1080000
0"
#1090000
b11 L
1"
#1100000
0"
#1110000
0>
b0 L
1"
#1120000
0"
#1130000
b1 L
1"
#1140000
0"
#1150000
b1111 9
b1111 Y
b1111 4
b1111 T
b1111 W
1>
b10 L
1"
#1160000
0"
#1170000
b11 L
1"
#1180000
0"
0&
#1190000
0>
b0 L
1"
#1200000
0"
#1210000
b1 L
1"
#1220000
0"
#1230000
b10000 9
b10000 Y
b10000 4
b10000 T
b10000 W
1>
b10 L
1"
#1240000
0"
#1250000
b11 L
1"
#1260000
0"
#1270000
0>
b0 L
1"
#1280000
0"
#1290000
b1 L
1"
#1300000
0"
#1310000
b10001 9
b10001 Y
b10001 4
b10001 T
b10001 W
1>
b10 L
1"
#1320000
0"
#1330000
b11 L
1"
#1340000
0"
#1350000
0>
b0 L
1"
#1360000
0"
#1370000
b1 L
1"
#1380000
0"
#1390000
b10010 9
b10010 Y
b10010 4
b10010 T
b10010 W
1>
b10 L
1"
#1400000
0"
#1410000
b11 L
1"
#1420000
0"
#1430000
0>
b0 L
1"
#1440000
0"
#1450000
b1 L
1"
#1460000
0"
#1470000
b10011 9
b10011 Y
b10011 4
b10011 T
b10011 W
1>
b10 L
1"
#1480000
0"
#1490000
b11 L
1"
#1500000
0"
#1510000
0>
b0 L
1"
#1520000
0"
#1530000
b1 L
1"
#1540000
0"
#1550000
b10100 9
b10100 Y
b10100 4
b10100 T
b10100 W
1>
b10 L
1"
#1560000
0"
#1570000
b11 L
1"
#1580000
0"
#1590000
0>
b0 L
1"
#1600000
0"
#1610000
b1 L
1"
#1620000
0"
#1630000
b10101 9
b10101 Y
b10101 4
b10101 T
b10101 W
1>
b10 L
1"
#1640000
0"
#1650000
b11 L
1"
#1660000
0"
#1670000
0>
b0 L
1"
#1680000
0"
#1690000
b1 L
1"
#1700000
0"
#1705000
0%
#1710000
b10110 9
b10110 Y
b10110 4
b10110 T
b10110 W
1>
0K
b10 L
1"
#1720000
0"
#1730000
b11 L
1"
#1740000
0"
#1750000
0>
b0 L
1"
#1760000
0"
#1770000
b1 L
1"
#1780000
0"
#1790000
b10111 9
b10111 Y
b10111 4
b10111 T
b10111 W
1>
b10 L
1"
#1800000
0"
#1810000
b11 L
1"
#1820000
0"
#1830000
0>
b0 L
1"
#1840000
0"
#1850000
b1 L
1"
#1860000
0"
#1870000
b11000 9
b11000 Y
b11000 4
b11000 T
b11000 W
1>
b10 L
1"
#1880000
0"
#1890000
b11 L
1"
#1900000
0"
#1910000
0>
b0 L
1"
#1920000
0"
#1930000
b1 L
1"
#1940000
0"
#1950000
b11001 9
b11001 Y
b11001 4
b11001 T
b11001 W
1>
b10 L
1"
#1960000
0"
#1970000
b11 L
1"
#1980000
0"
#1990000
0>
b0 L
1"
#2000000
0"
#2010000
b1 L
1"
#2020000
0"
#2030000
b11010 9
b11010 Y
b11010 4
b11010 T
b11010 W
1>
b10 L
1"
#2040000
0"
#2050000
b11 L
1"
#2060000
0"
#2070000
0>
b0 L
1"
#2080000
0"
#2090000
b1 L
1"
#2100000
0"
#2110000
b11011 9
b11011 Y
b11011 4
b11011 T
b11011 W
1>
b10 L
1"
#2120000
0"
#2130000
b11 L
1"
#2140000
0"
#2150000
0>
b0 L
1"
#2160000
0"
#2170000
b1 L
1"
#2180000
0"
#2190000
b11100 9
b11100 Y
b11100 4
b11100 T
b11100 W
1>
b10 L
1"
#2200000
0"
#2210000
b11 L
1"
#2220000
0"
#2230000
0>
b0 L
1"
#2240000
0"
1%
#2250000
b1 L
1!
1J
1"
#2260000
0"
#2270000
b11101 9
b11101 Y
b11101 4
b11101 T
b11101 W
1>
b10 L
1"
#2280000
0"
#2290000
b11 L
1"
#2300000
0"
#2310000
0>
b0 L
1"
#2320000
0"
#2330000
b1 L
1"
#2340000
0"
#2350000
b11110 9
b11110 Y
b11110 4
b11110 T
b11110 W
1>
b10 L
1"
#2360000
0"
#2370000
b11 L
1"
#2380000
0"
#2390000
0>
b0 L
1"
#2400000
0"
#2410000
b1 L
1"
#2420000
0"
#2430000
b11111 9
b11111 Y
b11111 4
b11111 T
b11111 W
1>
b10 L
1"
#2440000
0"
#2450000
b11 L
1"
#2460000
0"
#2470000
0>
b0 L
1"
#2480000
0"
#2490000
b1 L
1"
#2500000
0"
#2510000
b100000 9
b100000 Y
b100000 4
b100000 T
b100000 W
1>
b10 L
1"
#2520000
0"
#2530000
b11 L
1"
#2540000
0"
#2550000
0>
b0 L
1"
#2560000
0"
#2570000
b1 L
1"
#2580000
0"
#2590000
b100001 9
b100001 Y
b100001 4
b100001 T
b100001 W
1>
b10 L
1"
#2600000
0"
#2610000
b11 L
1"
#2620000
0"
#2630000
0>
b0 L
1"
#2640000
0"
#2650000
b1 L
1"
#2660000
0"
#2670000
b100010 9
b100010 Y
b100010 4
b100010 T
b100010 W
1>
b10 L
1"
#2680000
0"
#2690000
b11 L
1"
#2700000
0"
#2710000
0>
b0 L
1"
#2720000
0"
#2730000
b1 L
1"
#2740000
0"
#2750000
b100011 9
b100011 Y
b100011 4
b100011 T
b100011 W
1>
b10 L
1"
#2760000
0"
#2770000
b11 L
1"
#2780000
0"
#2785000
0%
#2790000
0>
b0 L
1"
#2800000
0"
#2810000
b1 L
1"
#2820000
0"
#2830000
b100100 9
b100100 Y
b100100 4
b100100 T
b100100 W
1>
b10 L
1"
#2840000
0"
#2850000
b11 L
1"
#2860000
0"
#2870000
0>
b0 L
1"
#2880000
0"
#2890000
b1 L
1"
#2900000
0"
#2910000
b100101 9
b100101 Y
b100101 4
b100101 T
b100101 W
1>
b10 L
1"
#2920000
0"
#2930000
b11 L
1"
#2940000
0"
#2950000
0>
b0 L
1"
#2960000
0"
#2970000
b1 L
1"
#2980000
0"
#2990000
b100110 9
b100110 Y
b100110 4
b100110 T
b100110 W
1>
b10 L
1"
#3000000
0"
#3010000
b11 L
1"
#3020000
0"
#3030000
0>
b0 L
1"
#3040000
0"
#3050000
b1 L
1"
#3060000
0"
#3070000
b100111 9
b100111 Y
b100111 4
b100111 T
b100111 W
1>
b10 L
1"
#3080000
0"
#3090000
b11 L
1"
#3100000
0"
#3110000
0>
b0 L
1"
#3120000
0"
#3130000
b1 L
1"
#3140000
0"
#3150000
b101000 9
b101000 Y
b101000 4
b101000 T
b101000 W
1>
b10 L
1"
#3160000
0"
#3170000
b11 L
1"
#3180000
0"
#3190000
0>
b0 L
1"
#3200000
0"
#3210000
b1 L
1"
#3220000
0"
#3230000
b101001 9
b101001 Y
b101001 4
b101001 T
b101001 W
1>
b10 L
1"
#3240000
0"
#3250000
b11 L
1"
#3260000
0"
#3270000
0>
b0 L
1"
#3280000
0"
#3290000
b1 L
1"
#3300000
0"
#3310000
b101010 9
b101010 Y
b101010 4
b101010 T
b101010 W
1>
b10 L
1"
#3320000
0"
#3330000
b11 L
1"
#3340000
0"
1&
#3350000
0>
0!
0J
1K
b0 L
1"
#3360000
0"
#3370000
b1 L
1"
#3380000
0"
#3390000
b101011 9
b101011 Y
b101011 4
b101011 T
b101011 W
1>
b10 L
1"
#3400000
0"
#3410000
b11 L
1"
#3420000
0"
#3430000
0>
b0 L
1"
#3440000
0"
#3450000
b1 L
1"
#3460000
0"
#3470000
b101100 9
b101100 Y
b101100 4
b101100 T
b101100 W
1>
b10 L
1"
#3480000
0"
#3490000
b11 L
1"
#3500000
0"
#3510000
0>
b0 L
1"
#3520000
0"
#3530000
b1 L
1"
#3540000
0"
#3550000
b101101 9
b101101 Y
b101101 4
b101101 T
b101101 W
1>
b10 L
1"
#3560000
0"
#3570000
b11 L
1"
#3580000
0"
#3590000
0>
b0 L
1"
#3600000
0"
#3610000
b1 L
1"
#3620000
0"
#3630000
b101110 9
b101110 Y
b101110 4
b101110 T
b101110 W
1>
b10 L
1"
#3640000
0"
#3650000
b11 L
1"
#3660000
0"
#3670000
0>
b0 L
1"
#3680000
0"
#3690000
b1 L
1"
#3700000
0"
#3710000
b101111 9
b101111 Y
b101111 4
b101111 T
b101111 W
1>
b10 L
1"
#3720000
0"
#3730000
b11 L
1"
#3740000
0"
#3750000
0>
b0 L
1"
#3760000
0"
#3770000
b1 L
1"
#3780000
0"
#3790000
b110000 9
b110000 Y
b110000 4
b110000 T
b110000 W
1>
b10 L
1"
#3800000
0"
#3810000
b11 L
1"
#3820000
0"
#3830000
0>
b0 L
1"
#3840000
0"
#3850000
b1 L
1"
#3860000
0"
#3870000
b110001 9
b110001 Y
b110001 4
b110001 T
b110001 W
1>
b10 L
1"
#3880000
0"
#3890000
b11 L
1"
#3900000
0"
#3905000
0&
#3910000
0>
0K
b0 L
1"
#3920000
0"
#3930000
b1 L
1"
#3940000
0"
#3950000
b110010 9
b110010 Y
b110010 4
b110010 T
b110010 W
1>
b10 L
1"
#3960000
0"
#3970000
b11 L
1"
#3980000
0"
#3990000
0>
b0 L
1"
#4000000
0"
#4010000
b1 L
1"
#4020000
0"
#4030000
b110011 9
b110011 Y
b110011 4
b110011 T
b110011 W
1>
b10 L
1"
#4040000
0"
#4050000
b11 L
1"
#4060000
0"
#4070000
0>
b0 L
1"
#4080000
0"
#4090000
b1 L
1"
#4100000
0"
#4110000
b110100 9
b110100 Y
b110100 4
b110100 T
b110100 W
1>
b10 L
1"
#4120000
0"
#4130000
b11 L
1"
#4140000
0"
#4150000
0>
b0 L
1"
#4160000
0"
#4170000
b1 L
1"
#4180000
0"
#4190000
b110101 9
b110101 Y
b110101 4
b110101 T
b110101 W
1>
b10 L
1"
#4200000
0"
#4210000
b11 L
1"
#4220000
0"
#4230000
0>
b0 L
1"
#4240000
0"
#4250000
b1 L
1"
#4260000
0"
#4270000
b110110 9
b110110 Y
b110110 4
b110110 T
b110110 W
1>
b10 L
1"
#4280000
0"
#4290000
b11 L
1"
#4300000
0"
#4310000
0>
b0 L
1"
#4320000
0"
#4330000
b1 L
1"
#4340000
0"
#4350000
b110111 9
b110111 Y
b110111 4
b110111 T
b110111 W
1>
b10 L
1"
#4360000
0"
#4370000
b11 L
1"
#4380000
0"
#4390000
0>
b0 L
1"
#4400000
0"
#4410000
b1 L
1"
#4420000
0"
#4430000
b111000 9
b111000 Y
b111000 4
b111000 T
b111000 W
1>
b10 L
1"
#4440000
0"
#4450000
b11 L
1"
#4460000
0"
#4470000
0>
b0 L
1"
#4480000
0"
1%
#4490000
b1 L
1!
1J
1"
#4500000
0"
#4510000
b111001 9
b111001 Y
b111001 4
b111001 T
b111001 W
1>
b10 L
1"
#4520000
0"
#4530000
b11 L
1"
#4540000
0"
#4550000
0>
b0 L
1"
#4560000
0"
#4570000
b1 L
1"
#4580000
0"
#4590000
b111010 9
b111010 Y
b111010 4
b111010 T
b111010 W
1>
b10 L
1"
#4600000
0"
#4610000
b11 L
1"
#4620000
0"
#4630000
0>
b0 L
1"
#4640000
0"
#4650000
b1 L
1"
#4660000
0"
#4670000
b111011 9
b111011 Y
b111011 4
b111011 T
b111011 W
1>
b10 L
1"
#4680000
0"
#4690000
b11 L
1"
#4700000
0"
#4710000
0>
b0 L
1"
#4720000
0"
#4730000
b1 L
1"
#4740000
0"
#4750000
b111100 9
b111100 Y
b111100 4
b111100 T
b111100 W
1>
b10 L
1"
#4760000
0"
#4770000
b11 L
1"
#4780000
0"
#4790000
0>
b0 L
1"
#4800000
0"
#4810000
b1 L
1"
#4820000
0"
#4830000
b111101 9
b111101 Y
b111101 4
b111101 T
b111101 W
1>
b10 L
1"
#4840000
0"
#4850000
b11 L
1"
#4860000
0"
#4870000
0>
b0 L
1"
#4880000
0"
#4890000
b1 L
1"
#4900000
0"
#4910000
b111110 9
b111110 Y
b111110 4
b111110 T
b111110 W
1>
b10 L
1"
#4920000
0"
#4930000
b11 L
1"
#4940000
0"
#4950000
0>
b0 L
1"
#4960000
0"
#4970000
b1 L
1"
#4980000
0"
#4990000
b111111 9
b111111 Y
b111111 4
b111111 T
b111111 W
1>
b10 L
1"
#5000000
0"
#5010000
b11 L
1"
#5020000
0"
#5030000
0>
b0 L
1"
#5040000
0"
#5050000
b1 L
1"
#5060000
0"
#5070000
b111111011 ]
b111111011 A
b1 3
b1000000 9
b1000000 Y
b1000000 4
b1000000 T
b1000000 W
1>
b10 L
1"
#5080000
0"
#5090000
b11 L
1"
#5100000
0"
#5110000
0>
b0 L
1"
#5120000
0"
#5130000
b1 L
1"
#5140000
0"
#5150000
b1000001 9
b1000001 Y
b1000001 4
b1000001 T
b1000001 W
1>
b10 L
1"
#5160000
0"
#5170000
b11 L
1"
#5180000
0"
#5190000
0>
b0 L
1"
#5200000
0"
#5210000
b1 L
1"
#5220000
0"
#5230000
b1000010 9
b1000010 Y
b1000010 4
b1000010 T
b1000010 W
1>
b10 L
1"
#5240000
0"
#5250000
b11 L
1"
#5260000
0"
#5270000
0>
b0 L
1"
#5280000
0"
#5290000
b1 L
1"
#5300000
0"
#5310000
b1000011 9
b1000011 Y
b1000011 4
b1000011 T
b1000011 W
1>
b10 L
1"
#5320000
0"
#5330000
b11 L
1"
#5340000
0"
#5350000
0>
b0 L
1"
#5360000
0"
#5370000
b1 L
1"
#5380000
0"
#5390000
b1000100 9
b1000100 Y
b1000100 4
b1000100 T
b1000100 W
1>
b10 L
1"
#5400000
0"
#5410000
b11 L
1"
#5420000
0"
#5430000
0>
b0 L
1"
#5440000
0"
#5450000
b1 L
1"
#5460000
0"
#5470000
b1000101 9
b1000101 Y
b1000101 4
b1000101 T
b1000101 W
1>
b10 L
1"
#5480000
0"
#5490000
b11 L
1"
#5500000
0"
#5510000
0>
b0 L
1"
#5520000
0"
#5530000
b1 L
1"
#5540000
0"
#5550000
b1000110 9
b1000110 Y
b1000110 4
b1000110 T
b1000110 W
1>
b10 L
1"
#5560000
0"
#5570000
b11 L
1"
#5580000
0"
#5590000
0>
b0 L
1"
#5600000
0"
#5610000
b1 L
1"
#5620000
0"
#5630000
b1000111 9
b1000111 Y
b1000111 4
b1000111 T
b1000111 W
1>
b10 L
1"
#5640000
0"
#5650000
b11 L
1"
#5660000
0"
#5670000
0>
b0 L
1"
#5680000
0"
#5690000
b1 L
1"
#5700000
0"
#5710000
b1001000 9
b1001000 Y
b1001000 4
b1001000 T
b1001000 W
1>
b10 L
1"
#5720000
0"
#5730000
b11 L
1"
#5740000
0"
#5750000
0>
b0 L
1"
#5760000
0"
#5770000
b1 L
1"
#5780000
0"
#5790000
b1001001 9
b1001001 Y
b1001001 4
b1001001 T
b1001001 W
1>
b10 L
1"
#5800000
0"
#5810000
b11 L
1"
#5820000
0"
#5830000
0>
b0 L
1"
#5840000
0"
#5850000
b1 L
1"
#5860000
0"
#5870000
b1001010 9
b1001010 Y
b1001010 4
b1001010 T
b1001010 W
1>
b10 L
1"
#5880000
0"
#5890000
b11 L
1"
#5900000
0"
#5910000
0>
b0 L
1"
#5920000
0"
#5930000
b1 L
1"
#5940000
0"
#5950000
b1001011 9
b1001011 Y
b1001011 4
b1001011 T
b1001011 W
1>
b10 L
1"
#5960000
0"
#5970000
b11 L
1"
#5980000
0"
#5990000
0>
b0 L
1"
#6000000
0"
#6010000
b1 L
1"
#6020000
0"
#6030000
b1001100 9
b1001100 Y
b1001100 4
b1001100 T
b1001100 W
1>
b10 L
1"
#6040000
0"
#6050000
b11 L
1"
#6060000
0"
#6070000
0>
b0 L
1"
#6080000
0"
#6090000
b1 L
1"
#6100000
0"
#6110000
b1001101 9
b1001101 Y
b1001101 4
b1001101 T
b1001101 W
1>
b10 L
1"
#6120000
0"
#6130000
b11 L
1"
#6140000
0"
#6150000
0>
b0 L
1"
#6160000
0"
#6170000
b1 L
1"
#6180000
0"
#6190000
b1001110 9
b1001110 Y
b1001110 4
b1001110 T
b1001110 W
1>
b10 L
1"
#6200000
0"
#6210000
b11 L
1"
#6220000
0"
#6230000
0>
b0 L
1"
#6240000
0"
#6250000
b1 L
1"
#6260000
0"
#6270000
b1001111 9
b1001111 Y
b1001111 4
b1001111 T
b1001111 W
1>
b10 L
1"
#6280000
0"
#6290000
b11 L
1"
#6300000
0"
#6310000
0>
b0 L
1"
#6320000
0"
#6330000
b1 L
1"
#6340000
0"
#6350000
b1010000 9
b1010000 Y
b1010000 4
b1010000 T
b1010000 W
1>
b10 L
1"
#6360000
0"
#6370000
b11 L
1"
#6380000
0"
#6390000
0>
b0 L
1"
#6400000
0"
#6410000
b1 L
1"
#6420000
0"
#6430000
b1010001 9
b1010001 Y
b1010001 4
b1010001 T
b1010001 W
1>
b10 L
1"
#6440000
0"
#6450000
b11 L
1"
#6460000
0"
#6470000
0>
b0 L
1"
#6480000
0"
#6490000
b1 L
1"
#6500000
0"
#6510000
b1010010 9
b1010010 Y
b1010010 4
b1010010 T
b1010010 W
1>
b10 L
1"
#6520000
0"
#6530000
b11 L
1"
#6540000
0"
#6550000
0>
b0 L
1"
#6560000
0"
#6570000
b1 L
1"
#6580000
0"
#6590000
b1010011 9
b1010011 Y
b1010011 4
b1010011 T
b1010011 W
1>
b10 L
1"
#6600000
0"
#6610000
b11 L
1"
#6620000
0"
#6630000
0>
b0 L
1"
#6640000
0"
#6650000
b1 L
1"
#6660000
0"
#6670000
b1010100 9
b1010100 Y
b1010100 4
b1010100 T
b1010100 W
1>
b10 L
1"
#6680000
0"
#6690000
b11 L
1"
#6700000
0"
#6710000
0>
b0 L
1"
#6720000
0"
#6730000
b1 L
1"
#6740000
0"
#6750000
b1010101 9
b1010101 Y
b1010101 4
b1010101 T
b1010101 W
1>
b10 L
1"
#6760000
0"
#6770000
b11 L
1"
#6780000
0"
#6790000
0>
b0 L
1"
#6800000
0"
#6810000
b1 L
1"
#6820000
0"
#6830000
b1010110 9
b1010110 Y
b1010110 4
b1010110 T
b1010110 W
1>
b10 L
1"
#6840000
0"
#6850000
b11 L
1"
#6860000
0"
#6870000
0>
b0 L
1"
#6880000
0"
#6890000
b1 L
1"
#6900000
0"
#6910000
b1010111 9
b1010111 Y
b1010111 4
b1010111 T
b1010111 W
1>
b10 L
1"
#6920000
0"
#6930000
b11 L
1"
#6940000
0"
#6950000
0>
b0 L
1"
#6960000
0"
#6970000
b1 L
1"
#6980000
0"
#6990000
b1011000 9
b1011000 Y
b1011000 4
b1011000 T
b1011000 W
1>
b10 L
1"
#7000000
0"
#7010000
b11 L
1"
#7020000
0"
#7030000
0>
b0 L
1"
#7040000
0"
#7050000
b1 L
1"
#7060000
0"
#7070000
b1011001 9
b1011001 Y
b1011001 4
b1011001 T
b1011001 W
1>
b10 L
1"
#7080000
0"
#7090000
b11 L
1"
#7100000
0"
#7110000
0>
b0 L
1"
#7120000
0"
#7130000
b1 L
1"
#7140000
0"
#7150000
b1011010 9
b1011010 Y
b1011010 4
b1011010 T
b1011010 W
1>
b10 L
1"
#7160000
0"
#7170000
b11 L
1"
#7180000
0"
#7190000
0>
b0 L
1"
#7200000
0"
#7210000
b1 L
1"
#7220000
0"
#7230000
b1011011 9
b1011011 Y
b1011011 4
b1011011 T
b1011011 W
1>
b10 L
1"
#7240000
0"
#7250000
b11 L
1"
#7260000
0"
#7270000
0>
b0 L
1"
#7280000
0"
#7290000
b1 L
1"
#7300000
0"
#7310000
b1011100 9
b1011100 Y
b1011100 4
b1011100 T
b1011100 W
1>
b10 L
1"
#7320000
0"
#7330000
b11 L
1"
#7340000
0"
#7350000
0>
b0 L
1"
#7360000
0"
#7370000
b1 L
1"
#7380000
0"
#7390000
b1011101 9
b1011101 Y
b1011101 4
b1011101 T
b1011101 W
1>
b10 L
1"
#7400000
0"
#7410000
b11 L
1"
#7420000
0"
#7430000
0>
b0 L
1"
#7440000
0"
#7450000
b1 L
1"
#7460000
0"
#7470000
b1011110 9
b1011110 Y
b1011110 4
b1011110 T
b1011110 W
1>
b10 L
1"
#7480000
0"
#7490000
b11 L
1"
#7500000
0"
#7510000
0>
b0 L
1"
#7520000
0"
#7530000
b1 L
1"
#7540000
0"
#7550000
b1011111 9
b1011111 Y
b1011111 4
b1011111 T
b1011111 W
1>
b10 L
1"
#7560000
0"
#7570000
b11 L
1"
#7580000
0"
#7590000
0>
b0 L
1"
#7600000
0"
#7610000
b1 L
1"
#7620000
0"
#7630000
b1100000 9
b1100000 Y
b1100000 4
b1100000 T
b1100000 W
1>
b10 L
1"
#7640000
0"
#7650000
b11 L
1"
#7660000
0"
#7670000
0>
b0 L
1"
#7680000
0"
#7690000
b1 L
1"
#7700000
0"
#7710000
b1100001 9
b1100001 Y
b1100001 4
b1100001 T
b1100001 W
1>
b10 L
1"
#7720000
0"
#7730000
b11 L
1"
#7740000
0"
#7750000
0>
b0 L
1"
#7760000
0"
#7770000
b1 L
1"
#7780000
0"
#7790000
b1100010 9
b1100010 Y
b1100010 4
b1100010 T
b1100010 W
1>
b10 L
1"
#7800000
0"
#7810000
b11 L
1"
#7820000
0"
#7830000
0>
b0 L
1"
#7840000
0"
#7850000
b1 L
1"
#7860000
0"
#7870000
b1100011 9
b1100011 Y
b1100011 4
b1100011 T
b1100011 W
1>
b10 L
1"
#7880000
0"
#7890000
b11 L
1"
#7900000
0"
#7910000
0>
b0 L
1"
#7920000
0"
#7930000
b1 L
1"
#7940000
0"
#7950000
b1100100 9
b1100100 Y
b1100100 4
b1100100 T
b1100100 W
1>
b10 L
1"
#7960000
0"
#7970000
b11 L
1"
#7980000
0"
#7990000
0>
b0 L
1"
#8000000
0"
#8010000
b1 L
1"
#8020000
0"
#8030000
b1100101 9
b1100101 Y
b1100101 4
b1100101 T
b1100101 W
1>
b10 L
1"
#8040000
0"
#8050000
b11 L
1"
#8060000
0"
#8070000
0>
b0 L
1"
#8080000
0"
#8090000
b1 L
1"
#8100000
0"
#8110000
b1100110 9
b1100110 Y
b1100110 4
b1100110 T
b1100110 W
1>
b10 L
1"
#8120000
0"
#8130000
b11 L
1"
#8140000
0"
#8150000
0>
b0 L
1"
#8160000
0"
#8170000
b1 L
1"
#8180000
0"
#8190000
b1100111 9
b1100111 Y
b1100111 4
b1100111 T
b1100111 W
1>
b10 L
1"
#8200000
0"
#8210000
b11 L
1"
#8220000
0"
#8230000
0>
b0 L
1"
#8240000
0"
#8250000
b1 L
1"
#8260000
0"
#8270000
b1101000 9
b1101000 Y
b1101000 4
b1101000 T
b1101000 W
1>
b10 L
1"
#8280000
0"
#8290000
b11 L
1"
#8300000
0"
#8310000
0>
b0 L
1"
#8320000
0"
#8330000
b1 L
1"
#8340000
0"
#8350000
b1101001 9
b1101001 Y
b1101001 4
b1101001 T
b1101001 W
1>
b10 L
1"
#8360000
0"
#8370000
b11 L
1"
#8380000
0"
#8390000
0>
b0 L
1"
#8400000
0"
#8410000
b1 L
1"
#8420000
0"
#8430000
b1101010 9
b1101010 Y
b1101010 4
b1101010 T
b1101010 W
1>
b10 L
1"
#8440000
0"
#8450000
b11 L
1"
#8460000
0"
#8470000
0>
b0 L
1"
#8480000
0"
#8490000
b1 L
1"
#8500000
0"
